
build/app:     file format elf32-bigmips


Disassembly of section .text:

00000000 <boot>:
       0:	3c108002 	lui	s0,0x8002
       4:	34110001 	li	s1,0x1
       8:	34081234 	li	t0,0x1234
       c:	34091234 	li	t1,0x1234
	...
      18:	01095026 	xor	t2,t0,t1
	...
      24:	2d420001 	sltiu	v0,t2,1
	...
      30:	ae020004 	sw	v0,4(s0)
      34:	ae110000 	sw	s1,0(s0)
      38:	0800000e 	j	38 <boot+0x38>
      3c:	00000000 	nop
	...
