
build/app:     file format elf32-bigmips


Disassembly of section .text:

00000000 <boot>:
       0:	3c108002 	lui	s0,0x8002
       4:	34110001 	li	s1,0x1
       8:	34090000 	li	t1,0x0
       c:	340a0001 	li	t2,0x1
	...
      18:	012a6026 	xor	t4,t1,t2
	...
      24:	ae0c0004 	sw	t4,4(s0)
      28:	ae110000 	sw	s1,0(s0)
      2c:	0800000b 	j	2c <boot+0x2c>
      30:	00000000 	nop
	...
