$date
	Thu Feb 26 15:35:02 2015
$end
$version
	Icarus Verilog
$end
$timescale
	1ps
$end
$scope module userlogic_test $end
$var wire 32 ! data_out [31:0] $end
$var wire 15 " input_buffer_addr [14:0] $end
$var wire 15 # output_buffer_addr [14:0] $end
$var wire 32 $ ul_instr [31:0] $end
$var wire 32 % ul_instr_addr [31:0] $end
$var wire 32 & ul_read_addr [31:0] $end
$var wire 32 ' ul_read_data [31:0] $end
$var wire 32 ( ul_status [31:0] $end
$var wire 32 ) ul_test [31:0] $end
$var wire 32 * ul_write_addr [31:0] $end
$var wire 32 + ul_write_data [31:0] $end
$var wire 16 , ul_write_data_hi [15:0] $end
$var wire 16 - ul_write_data_lo [15:0] $end
$var wire 2 . ul_write_en_hi [1:0] $end
$var wire 2 / ul_write_en_lo [1:0] $end
$var reg 1 0 clk $end
$var reg 32 1 cycle_count [32:1] $end
$var integer 32 2 dump_vars [31:0] $end
$var reg 8192 3 dump_vars_filename [8192:1] $end
$var integer 32 4 i [31:0] $end
$var reg 10 5 image_n_columns [9:0] $end
$var reg 10 6 image_n_rows [9:0] $end
$var reg 8192 7 input_buffer_filename [8192:1] $end
$var reg 8192 8 instr_mem_filename [8192:1] $end
$var reg 32 9 num_cycles [32:1] $end
$var reg 33 : out_end_addr [32:0] $end
$var reg 33 ; out_start_addr [32:0] $end
$var integer 32 < outfile [31:0] $end
$var reg 8192 = output_buffer_filename [8192:1] $end
$var reg 15 > read_addr [14:0] $end
$var integer 32 ? read_input_buffer [31:0] $end
$var integer 32 @ read_instr_mem [31:0] $end
$var integer 32 A result [31:0] $end
$var reg 1 B rst_n $end
$var reg 8192 C test_result_filename [8192:1] $end
$var reg 32 D ul_command [31:0] $end
$var integer 32 E write_output_buffer [31:0] $end
$var integer 32 F write_test_result [31:0] $end
$scope module instr_mem $end
$var wire 14 G addr [13:0] $end
$var wire 1 H clk $end
$var wire 32 I din [31:0] $end
$var wire 1 J we $end
$var reg 32 K dout [31:0] $end
$upscope $end
$scope module input_buffer $end
$var wire 15 L addr [14:0] $end
$var wire 1 H clk $end
$var wire 32 M din [31:0] $end
$var wire 1 N we $end
$var reg 32 O dout [31:0] $end
$upscope $end
$scope module output_buffer $end
$var wire 15 P addr [14:0] $end
$var wire 1 H clk $end
$var wire 32 Q din [31:0] $end
$var wire 4 R we [3:0] $end
$var reg 32 S dout [31:0] $end
$scope begin column[0] $end
$upscope $end
$scope begin column[1] $end
$upscope $end
$scope begin column[2] $end
$upscope $end
$scope begin column[3] $end
$upscope $end
$upscope $end
$scope module ul $end
$var wire 1 T addr_cmd $end
$var wire 1 U addr_iobuf $end
$var wire 1 V addr_local $end
$var wire 1 W addr_status $end
$var wire 1 X addr_test $end
$var wire 1 H clk $end
$var wire 32 Y command [31:0] $end
$var wire 32 Z instr [31:0] $end
$var wire 32 [ instr_addr [31:0] $end
$var wire 32 \ mips_addr [31:0] $end
$var wire 32 ] mips_local_read_data [31:0] $end
$var wire 32 ^ mips_pc [31:0] $end
$var wire 32 _ mips_read_data [31:0] $end
$var wire 1 ` mips_read_en $end
$var wire 4 a mips_write_en [3:0] $end
$var wire 32 b read_addr_hi [31:0] $end
$var wire 32 c read_addr_lo [31:0] $end
$var wire 32 d read_data [31:0] $end
$var wire 16 e read_data_hi [15:0] $end
$var wire 16 f read_data_lo [15:0] $end
$var wire 1 g rst_n $end
$var wire 32 h status [31:0] $end
$var wire 32 i test [31:0] $end
$var wire 32 j write_addr_hi [31:0] $end
$var wire 32 k write_addr_lo [31:0] $end
$var wire 32 l write_data [31:0] $end
$var wire 16 m write_data_hi [15:0] $end
$var wire 16 n write_data_lo [15:0] $end
$var wire 2 o write_en_hi [1:0] $end
$var wire 2 p write_en_lo [1:0] $end
$var reg 32 q cmd_d [31:0] $end
$var reg 1 r read_cmd_d $end
$var reg 1 s read_iobuf_d $end
$var reg 32 t status_reg [31:0] $end
$var reg 32 u test_reg [31:0] $end
$scope module cpu $end
$var wire 32 v alu_op_x_ex [31:0] $end
$var wire 32 w alu_op_x_id [31:0] $end
$var wire 32 x alu_op_y_ex [31:0] $end
$var wire 32 y alu_op_y_id [31:0] $end
$var wire 1 z alu_op_y_zero_ex $end
$var wire 4 { alu_opcode_ex [3:0] $end
$var wire 4 | alu_opcode_id [3:0] $end
$var wire 1 } alu_overflow $end
$var wire 32 ~ alu_result_ex [31:0] $end
$var wire 32 !" alu_result_mem [31:0] $end
$var wire 1 H clk $end
$var wire 1 "" en $end
$var wire 1 #" en_if $end
$var wire 32 $" imm2if_id [31:0] $end
$var wire 32 %" instr [31:0] $end
$var wire 32 &" instr_id [31:0] $end
$var wire 30 '" instr_number_id [29:0] $end
$var wire 32 (" instr_sav [31:0] $end
$var wire 32 )" jr_pc_id [31:0] $end
$var wire 1 *" jump_branch_id $end
$var wire 1 +" jump_reg_id $end
$var wire 1 ," jump_target_id $end
$var wire 32 -" mem_addr [31:0] $end
$var wire 1 ." mem_byte_ex $end
$var wire 1 /" mem_byte_id $end
$var wire 1 0" mem_byte_mem $end
$var wire 32 1" mem_out [31:0] $end
$var wire 32 2" mem_read_data [31:0] $end
$var wire 32 3" mem_read_data_byte_extend [31:0] $end
$var wire 8 4" mem_read_data_byte_select [7:0] $end
$var wire 1 ` mem_read_en $end
$var wire 1 5" mem_read_ex $end
$var wire 1 6" mem_read_id $end
$var wire 1 7" mem_read_mem $end
$var wire 1 8" mem_read_mem_1 $end
$var wire 1 9" mem_signextend_ex $end
$var wire 1 :" mem_signextend_id $end
$var wire 1 ;" mem_signextend_mem $end
$var wire 1 <" mem_to_reg $end
$var wire 1 =" mem_we_ex $end
$var wire 1 >" mem_we_id $end
$var wire 32 ?" mem_write_data [31:0] $end
$var wire 32 @" mem_write_data_ex [31:0] $end
$var wire 32 A" mem_write_data_id [31:0] $end
$var wire 4 B" mem_write_en [3:0] $end
$var wire 1 C" movn_ex $end
$var wire 1 D" movn_id $end
$var wire 1 E" movz_ex $end
$var wire 1 F" movz_id $end
$var wire 32 G" pc [31:0] $end
$var wire 32 H" pc_id [31:0] $end
$var wire 32 I" pc_if [31:0] $end
$var wire 1 J" reg_we_cond_ex $end
$var wire 1 K" reg_we_ex $end
$var wire 1 L" reg_we_id $end
$var wire 1 M" reg_we_mem $end
$var wire 1 N" reg_we_wb $end
$var wire 5 O" reg_write_addr_ex [4:0] $end
$var wire 5 P" reg_write_addr_id [4:0] $end
$var wire 5 Q" reg_write_addr_mem [4:0] $end
$var wire 5 R" reg_write_addr_wb [4:0] $end
$var wire 32 S" reg_write_data_mem [31:0] $end
$var wire 32 T" reg_write_data_wb [31:0] $end
$var wire 5 U" rs_addr_id [4:0] $end
$var wire 32 V" rs_data_id [31:0] $end
$var wire 1 W" rst $end
$var wire 1 X" rst_id $end
$var wire 5 Y" rt_addr_id [4:0] $end
$var wire 32 Z" rt_data_id [31:0] $end
$var wire 1 [" stall $end
$var wire 1 \" stall_r $end
$scope module if_stage $end
$var wire 32 ]" b_addr [31:0] $end
$var wire 1 H clk $end
$var wire 1 #" en $end
$var wire 32 ^" imm2if [31:0] $end
$var wire 26 _" instr_id [25:0] $end
$var wire 32 `" j_addr [31:0] $end
$var wire 1 *" jump_branch $end
$var wire 1 ," jump_target $end
$var wire 32 a" pc [31:0] $end
$var wire 32 b" pc_id [31:0] $end
$var wire 32 c" pc_id_p4 [31:0] $end
$var wire 32 d" pc_next [31:0] $end
$var wire 1 W" rst $end
$scope module pc_reg $end
$var wire 1 H clk $end
$var wire 32 e" d [31:0] $end
$var wire 1 #" en $end
$var wire 1 W" r $end
$var reg 32 f" q [31:0] $end
$upscope $end
$upscope $end
$scope module pc_if2id $end
$var wire 1 H clk $end
$var wire 32 g" d [31:0] $end
$var wire 1 #" en $end
$var wire 1 W" r $end
$var reg 32 h" q [31:0] $end
$upscope $end
$scope module instr_sav_dff $end
$var wire 1 H clk $end
$var wire 32 i" d [31:0] $end
$var wire 1 "" en $end
$var wire 1 W" r $end
$var reg 32 j" q [31:0] $end
$upscope $end
$scope module stall_f_dff $end
$var wire 1 H clk $end
$var wire 1 [" d $end
$var wire 1 "" en $end
$var wire 1 W" r $end
$var reg 1 k" q $end
$upscope $end
$scope module d_stage $end
$var wire 32 l" alu_op_x [31:0] $end
$var wire 32 m" alu_op_y [31:0] $end
$var wire 32 n" alu_result_ex [31:0] $end
$var wire 1 o" forward_rs_mem $end
$var wire 6 p" funct [5:0] $end
$var wire 32 q" imm [31:0] $end
$var wire 32 r" imm2if [31:0] $end
$var wire 32 s" imm_sign_extend [31:0] $end
$var wire 32 t" imm_upper [31:0] $end
$var wire 32 u" imm_zero_extend [31:0] $end
$var wire 16 v" immediate [15:0] $end
$var wire 32 w" instr [31:0] $end
$var wire 1 x" isALUImm $end
$var wire 1 y" isBEQ $end
$var wire 1 z" isBGEZAL $end
$var wire 1 {" isBGEZNL $end
$var wire 1 |" isBGTZ $end
$var wire 1 }" isBLEZ $end
$var wire 1 ~" isBLTZAL $end
$var wire 1 !# isBLTZNL $end
$var wire 1 "# isBNE $end
$var wire 1 ## isBranchLink $end
$var wire 1 $# isEqual $end
$var wire 1 %# isJ $end
$var wire 1 &# isLUI $end
$var wire 1 '# isSLL $end
$var wire 1 (# isSLLV $end
$var wire 1 )# isSRA $end
$var wire 1 *# isSRAV $end
$var wire 1 +# isSRL $end
$var wire 1 ,# isSRLV $end
$var wire 1 -# isShift $end
$var wire 1 .# isShiftImm $end
$var wire 32 /# jr_pc [31:0] $end
$var wire 1 *" jump_branch $end
$var wire 1 +" jump_reg $end
$var wire 1 ," jump_target $end
$var wire 1 /" mem_byte $end
$var wire 1 6" mem_read $end
$var wire 1 5" mem_read_ex $end
$var wire 1 :" mem_signextend $end
$var wire 1 >" mem_we $end
$var wire 32 0# mem_write_data [31:0] $end
$var wire 1 D" movn $end
$var wire 1 F" movz $end
$var wire 6 1# op [5:0] $end
$var wire 32 2# pc [31:0] $end
$var wire 5 3# rd_addr [4:0] $end
$var wire 1 4# read_from_rs $end
$var wire 1 5# read_from_rt $end
$var wire 1 L" reg_we $end
$var wire 1 K" reg_we_ex $end
$var wire 1 M" reg_we_mem $end
$var wire 5 6# reg_write_addr [4:0] $end
$var wire 5 7# reg_write_addr_ex [4:0] $end
$var wire 5 8# reg_write_addr_mem [4:0] $end
$var wire 32 9# reg_write_data_mem [31:0] $end
$var wire 5 :# rs_addr [4:0] $end
$var wire 32 ;# rs_data [31:0] $end
$var wire 32 <# rs_data_in [31:0] $end
$var wire 32 =# rs_data_signed [31:0] $end
$var wire 1 ># rs_greater_than_eq_zero $end
$var wire 1 ?# rs_less_than_eq_zero $end
$var wire 1 @# rs_less_than_zero $end
$var wire 1 A# rs_mem_dependency $end
$var wire 5 B# rt_addr [4:0] $end
$var wire 32 C# rt_data [31:0] $end
$var wire 32 D# rt_data_in [31:0] $end
$var wire 5 E# shamt [4:0] $end
$var wire 32 F# shift_amount [31:0] $end
$var wire 1 [" stall $end
$var wire 1 G# use_imm $end
$var reg 4 H# alu_opcode [3:0] $end
$upscope $end
$scope module alu_op_x_id2ex $end
$var wire 1 W" ar $end
$var wire 1 H clk $end
$var wire 32 I# d [31:0] $end
$var wire 1 "" en $end
$var wire 1 X" r $end
$var reg 32 J# q [31:0] $end
$upscope $end
$scope module alu_op_y_id2ex $end
$var wire 1 W" ar $end
$var wire 1 H clk $end
$var wire 32 K# d [31:0] $end
$var wire 1 "" en $end
$var wire 1 X" r $end
$var reg 32 L# q [31:0] $end
$upscope $end
$scope module alu_opcode_id2ex $end
$var wire 1 W" ar $end
$var wire 1 H clk $end
$var wire 4 M# d [3:0] $end
$var wire 1 "" en $end
$var wire 1 X" r $end
$var reg 4 N# q [3:0] $end
$upscope $end
$scope module movn $end
$var wire 1 W" ar $end
$var wire 1 H clk $end
$var wire 1 D" d $end
$var wire 1 "" en $end
$var wire 1 X" r $end
$var reg 1 O# q $end
$upscope $end
$scope module movz $end
$var wire 1 W" ar $end
$var wire 1 H clk $end
$var wire 1 F" d $end
$var wire 1 "" en $end
$var wire 1 X" r $end
$var reg 1 P# q $end
$upscope $end
$scope module mem_write_data_id2ex $end
$var wire 1 W" ar $end
$var wire 1 H clk $end
$var wire 32 Q# d [31:0] $end
$var wire 1 "" en $end
$var wire 1 X" r $end
$var reg 32 R# q [31:0] $end
$upscope $end
$scope module mem_we_id2ex $end
$var wire 1 W" ar $end
$var wire 1 H clk $end
$var wire 1 >" d $end
$var wire 1 "" en $end
$var wire 1 X" r $end
$var reg 1 S# q $end
$upscope $end
$scope module mem_read_id2ex $end
$var wire 1 W" ar $end
$var wire 1 H clk $end
$var wire 1 T# d $end
$var wire 1 "" en $end
$var wire 1 X" r $end
$var reg 1 U# q $end
$upscope $end
$scope module mem_byte_id2ex $end
$var wire 1 W" ar $end
$var wire 1 H clk $end
$var wire 1 /" d $end
$var wire 1 "" en $end
$var wire 1 X" r $end
$var reg 1 V# q $end
$upscope $end
$scope module mem_signextend_id2ex $end
$var wire 1 W" ar $end
$var wire 1 H clk $end
$var wire 1 :" d $end
$var wire 1 "" en $end
$var wire 1 X" r $end
$var reg 1 W# q $end
$upscope $end
$scope module reg_write_addr_id2ex $end
$var wire 1 W" ar $end
$var wire 1 H clk $end
$var wire 5 X# d [4:0] $end
$var wire 1 "" en $end
$var wire 1 X" r $end
$var reg 5 Y# q [4:0] $end
$upscope $end
$scope module reg_we_id2ex $end
$var wire 1 W" ar $end
$var wire 1 H clk $end
$var wire 1 L" d $end
$var wire 1 "" en $end
$var wire 1 X" r $end
$var reg 1 Z# q $end
$upscope $end
$scope module x_stage $end
$var wire 1 [# add_check $end
$var wire 1 \# add_neg_over $end
$var wire 1 ]# add_pos_over $end
$var wire 1 ^# alu_neg $end
$var wire 32 _# alu_op_x [31:0] $end
$var wire 32 `# alu_op_x_signed [31:0] $end
$var wire 32 a# alu_op_y [31:0] $end
$var wire 32 b# alu_op_y_signed [31:0] $end
$var wire 1 z alu_op_y_zero $end
$var wire 4 c# alu_opcode [3:0] $end
$var wire 1 } alu_overflow $end
$var wire 1 d# sub_check $end
$var wire 1 e# sub_neg_over $end
$var wire 1 f# sub_pos_over $end
$var wire 1 g# x_neg $end
$var wire 1 h# y_neg $end
$var reg 32 i# alu_result [31:0] $end
$upscope $end
$scope module alu_result_ex2mem $end
$var wire 1 H clk $end
$var wire 32 j# d [31:0] $end
$var wire 1 "" en $end
$var wire 1 W" r $end
$var reg 32 k# q [31:0] $end
$upscope $end
$scope module mem_read_ex2mem $end
$var wire 1 H clk $end
$var wire 1 l# d $end
$var wire 1 "" en $end
$var wire 1 W" r $end
$var reg 1 m# q $end
$upscope $end
$scope module mem_byte_ex2mem $end
$var wire 1 H clk $end
$var wire 1 ." d $end
$var wire 1 "" en $end
$var wire 1 W" r $end
$var reg 1 n# q $end
$upscope $end
$scope module mem_signextend_ex2mem $end
$var wire 1 H clk $end
$var wire 1 9" d $end
$var wire 1 "" en $end
$var wire 1 W" r $end
$var reg 1 o# q $end
$upscope $end
$scope module reg_write_addr_ex2mem $end
$var wire 1 H clk $end
$var wire 5 p# d [4:0] $end
$var wire 1 "" en $end
$var wire 1 W" r $end
$var reg 5 q# q [4:0] $end
$upscope $end
$scope module reg_we_ex2mem $end
$var wire 1 H clk $end
$var wire 1 K" d $end
$var wire 1 "" en $end
$var wire 1 W" r $end
$var reg 1 r# q $end
$upscope $end
$scope module delay_1 $end
$var wire 1 H clk $end
$var wire 1 7" d $end
$var wire 1 "" en $end
$var wire 1 W" r $end
$var reg 1 s# q $end
$upscope $end
$scope module delay_2 $end
$var wire 1 H clk $end
$var wire 1 8" d $end
$var wire 1 "" en $end
$var wire 1 W" r $end
$var reg 1 t# q $end
$upscope $end
$scope module reg_write_data_mem2wb $end
$var wire 1 H clk $end
$var wire 32 u# d [31:0] $end
$var wire 1 "" en $end
$var wire 1 W" r $end
$var reg 32 v# q [31:0] $end
$upscope $end
$scope module reg_write_addr_mem2wb $end
$var wire 1 H clk $end
$var wire 5 w# d [4:0] $end
$var wire 1 "" en $end
$var wire 1 W" r $end
$var reg 5 x# q [4:0] $end
$upscope $end
$scope module reg_we_mem2wb $end
$var wire 1 H clk $end
$var wire 1 M" d $end
$var wire 1 "" en $end
$var wire 1 W" r $end
$var reg 1 y# q $end
$upscope $end
$scope module w_stage $end
$var wire 1 H clk $end
$var wire 1 "" en $end
$var wire 1 N" reg_we $end
$var wire 5 z# reg_write_addr [4:0] $end
$var wire 32 {# reg_write_data [31:0] $end
$var wire 5 |# rs_addr [4:0] $end
$var wire 32 }# rs_data [31:0] $end
$var wire 5 ~# rt_addr [4:0] $end
$var wire 32 !$ rt_data [31:0] $end
$upscope $end
$upscope $end
$scope module mips_local_store $end
$var wire 12 "$ addr [11:0] $end
$var wire 1 H clk $end
$var wire 32 #$ din [31:0] $end
$var wire 4 $$ we [3:0] $end
$var reg 32 %$ dout [31:0] $end
$scope begin column[0] $end
$upscope $end
$scope begin column[1] $end
$upscope $end
$scope begin column[2] $end
$upscope $end
$scope begin column[3] $end
$upscope $end
$upscope $end
$upscope $end
$upscope $end
$enddefinitions $end
#0
$dumpvars
bx %$
b0 $$
b0 #$
b0 "$
bx !$
bx ~#
bx }#
bx |#
b0 {#
b0 z#
0y#
b0 x#
b0 w#
b0 v#
b0 u#
0t#
0s#
0r#
b0 q#
b0 p#
0o#
0n#
0m#
0l#
b0 k#
b0 j#
b0 i#
0h#
0g#
0f#
0e#
0d#
b0 c#
b0 b#
b0 a#
b0 `#
b0 _#
0^#
0]#
0\#
0[#
0Z#
b0 Y#
bx X#
0W#
0V#
0U#
0T#
0S#
b0 R#
bx Q#
0P#
0O#
b0 N#
b1101 M#
b0 L#
bx K#
b0 J#
bx I#
b1101 H#
xG#
b0xxxxx F#
bx E#
bx D#
bx C#
bx B#
0A#
x@#
x?#
x>#
bx =#
bx <#
bx ;#
bx :#
b0 9#
b0 8#
b0 7#
bx 6#
x5#
x4#
bx 3#
b0 2#
bx 1#
bx 0#
bx /#
x.#
x-#
x,#
x+#
x*#
x)#
x(#
x'#
x&#
x%#
x$#
x##
x"#
x!#
x~"
x}"
x|"
x{"
xz"
xy"
xx"
bx w"
bx v"
b0xxxxxxxxxxxxxxxx u"
bx0000000000000000 t"
bx s"
bx r"
bx q"
bx p"
0o"
b0 n"
bx m"
bx l"
0k"
b0 j"
bx i"
b0 h"
b0 g"
b0 f"
bx e"
bx d"
b100 c"
b0 b"
b0 a"
b0xxxxxxxxxxxxxxxxxxxxxxxxxx00 `"
bx _"
bx ^"
bx ]"
0\"
0["
bx Z"
bx Y"
0X"
0W"
bx V"
bx U"
b0 T"
b0 S"
b0 R"
b0 Q"
bx P"
b0 O"
0N"
0M"
xL"
0K"
0J"
b0 I"
b0 H"
b0 G"
xF"
0E"
xD"
0C"
b0 B"
bx A"
b0 @"
b0 ?"
x>"
0="
0<"
0;"
x:"
09"
08"
x7"
x6"
05"
bx 4"
b0xxxxxxxx 3"
bx 2"
bx 1"
00"
x/"
0."
b0 -"
x,"
0+"
x*"
bx )"
b0 ("
b0 '"
bx &"
bx %"
bx $"
1#"
1""
b0 !"
b0 ~
0}
b1101 |
b0 {
1z
bx y
b0 x
bx w
b0 v
bx u
bx t
xs
xr
bx q
b0 p
b0 o
b0 n
b0 m
b0 l
b0 k
b0 j
bx i
bx h
0g
bx f
bx e
bx d
b0 c
b0 b
b0 a
0`
bx _
b0 ^
bx ]
b0 \
b0 [
bx Z
b0xxxxxxxxxxxxxxxxxxxx10 Y
0X
0W
1V
0U
0T
bx S
b0 R
b0 Q
b0 P
bx O
0N
b0 M
b0 L
bx K
0J
b0 I
0H
b0 G
b1 F
b0 E
b0xxxxxxxxxxxxxxxxxxxx10 D
b11101000110010101110011011101000111001100101111011110000110111101110010001011110111010001100101011100110111010000101110011100100110010101110011011101010110110001110100 C
0B
b1 A
b1 @
b0 ?
b0 >
bx =
bx <
b0 ;
b100000000000000000 :
b1111101000 9
b111010001100101011100110111010001110011001011110111100001101111011100100010111101100010011101010110100101101100011001000010111101100001011100000111000000101110011010000110010101111000 8
bx 7
bx 6
bx 5
bx 4
b11101000110010101110011011101000111001100101111011110000110111101110010001011110111001101110100011100100110010101100001011011010111011101100001011101100110010100101110011101100110001101100100 3
b1 2
b0 1
00
b0 /
b0 .
b0 -
b0 ,
b0 +
b0 *
bx )
bx (
bx '
b0 &
b0 %
bx $
b0 #
b0 "
bx !
$end
#5000
0-#
b0 F#
b100 d"
b100 e"
b0 w
b0 l"
b0 I#
0@#
1?#
0.#
07"
b0 ;#
b0 =#
1>#
b0 )"
b0 /#
0*"
0##
b10000000000000000100 ]"
b10000000000000100000000000000000 y
b10000000000000100000000000000000 m"
b10000000000000100000000000000000 K#
b0 V"
b0 <#
b0 }#
0{"
1L"
0z"
0|"
0}"
0!#
0~"
b10000 P"
b10000 6#
b10000 X#
0'#
0+#
0(#
0,#
0*#
0)#
b1100 H#
b1100 |
b1100 M#
b10000000000000100000000000000000 q"
b10000000000000100000000000000000 $"
b10000000000000100000000000000000 ^"
b10000000000000100000000000000000 r"
0y"
0"#
0%#
0,"
1G#
04#
05#
1&#
0x"
0>"
06"
0/"
1:"
b1111 1#
b0 U"
b0 :#
b0 |#
b10000 Y"
b10000 B#
b10000 ~#
b10000 3#
b0 E#
0D"
0F"
b10 p"
b11111111111111111000000000000010 s"
b10000000000000100000000000000000 t"
b1000000000000010 u"
b1000000000000010 v"
b100001000000000000010 _"
b10000100000000000001000 `"
b111100000100001000000000000010 &"
b111100000100001000000000000010 w"
b111100000100001000000000000010 K
b111100000100001000000000000010 $
b111100000100001000000000000010 Z
b111100000100001000000000000010 %"
b111100000100001000000000000010 i"
bx S
bx %$
b0 u
b0 )
b0 i
b0 t
b0 (
b0 h
0s
0r
b0 q
10
1H
#10000
00
0H
#15000
bx %$
bx S
10
1H
#20000
1W"
00
0H
b0xxxxxxxxxxxxxxxxxxxx00 D
b0xxxxxxxxxxxxxxxxxxxx00 Y
1B
1g
#25000
0V
bx ,
bx m
bx +
bx Q
bx -
bx n
0]#
1f#
1^#
b1000 d"
b1000 e"
b1 G
1K"
bx l
bx ?"
bx #$
1h#
b10000000000000100000000000000000 i#
b10000000000000100000000000000000 ~
b10000000000000100000000000000000 n"
b10000000000000100000000000000000 j#
1W
b10000000000000100000000000000000 \
b10000000000000100000000000000000 -"
b1 %
b1 [
bx S
bx %$
1Z#
1J"
b10000 Y#
b10000 O"
b10000 7#
b10000 p#
1W#
19"
bx R#
bx @"
b1100 N#
b1100 {
b1100 c#
b10000000000000100000000000000000 L#
b10000000000000100000000000000000 b#
0z
b10000000000000100000000000000000 x
b10000000000000100000000000000000 a#
b111100000100001000000000000010 j"
b111100000100001000000000000010 ("
b100 f"
b100 I"
b100 a"
b100 g"
b100 ^
b100 G"
10
1H
#30000
00
0H
b1111100111 1
b0xxxxxxxxxxxxxxxxxxxx01 D
b0xxxxxxxxxxxxxxxxxxxx01 Y
#35000
b1 y
b1 m"
b1 K#
b10001 P"
b10001 6#
b10001 X#
b11 H#
b11 |
b11 M#
b1 q"
b1 $"
b1 ^"
b1 r"
14#
0&#
1x"
b1101 1#
b10001 Y"
b10001 B#
b10001 ~#
b0 3#
b1 p"
b1 s"
b10000000000000000 t"
b1 u"
b1 v"
b100010000000000000001 _"
b10001000000000000000100 `"
b1100 d"
b1100 e"
b10 G
b110100000100010000000000000001 &"
b110100000100010000000000000001 w"
b10 %
b10 [
b1100 ]"
b1 '"
b10000000000000100000000000000000 S"
b10000000000000100000000000000000 9#
b10000000000000100000000000000000 u#
bx 3"
bx %$
bx S
b110100000100010000000000000001 K
b110100000100010000000000000001 $
b110100000100010000000000000001 Z
b110100000100010000000000000001 %"
b110100000100010000000000000001 i"
b1000 f"
b1000 I"
b1000 a"
b1000 g"
b1000 ^
b1000 G"
b100 h"
b1000 c"
b100 H"
b100 b"
b100 2#
b10000000000000100000000000000000 k#
b10000000000000100000000000000000 !"
1o#
1;"
b10000 q#
b10000 Q"
b10000 8#
b10000 w#
1r#
1M"
10
1H
#40000
00
0H
b1111100110 1
#45000
b11011110101011110000000000000000 y
b11011110101011110000000000000000 m"
b11011110101011110000000000000000 K#
b11011110101011110000000000000000 q"
b11011110101011110000000000000000 $"
b11011110101011110000000000000000 ^"
b11011110101011110000000000000000 r"
b1000 P"
b1000 6#
b1000 X#
b1100 H#
b1100 |
b1100 M#
1V
04#
1&#
05#
0x"
b1111 1#
b1000 Y"
b1000 B#
b1000 ~#
b11011 3#
b11010 E#
b101111 p"
b11111111111111111101111010101111 s"
b11011110101011110000000000000000 t"
b1101111010101111 u"
b1101111010101111 v"
b10001101111010101111 _"
b1000110111101010111100 `"
0^#
b10000 d"
b10000 e"
b11 G
b111100000010001101111010101111 &"
b111100000010001101111010101111 w"
0f#
0h#
b1 i#
b1 ~
b1 n"
b1 j#
0U
0W
b1 \
b1 -"
b1111010101111000000000000001100 ]"
b10 '"
b11 %
b11 [
b111100000010001101111010101111 K
b111100000010001101111010101111 $
b111100000010001101111010101111 Z
b111100000010001101111010101111 %"
b111100000010001101111010101111 i"
bx S
bx %$
1y#
1N"
b10000 x#
b10000 R"
b10000 z#
b10000000000000100000000000000000 v#
b10000000000000100000000000000000 T"
b10000000000000100000000000000000 {#
b10001 Y#
b10001 O"
b10001 7#
b10001 p#
b11 N#
b11 {
b11 c#
b1 L#
b1 b#
b1 x
b1 a#
b110100000100010000000000000001 j"
b110100000100010000000000000001 ("
b1000 h"
b1100 c"
b1000 H"
b1000 b"
b1000 2#
b1100 f"
b1100 I"
b1100 a"
b1100 g"
b1100 ^
b1100 G"
10
1H
#50000
00
0H
b1111100101 1
#55000
1-#
1.#
b0 y
b0 m"
b0 K#
b0 P"
b0 6#
b0 X#
b0 A"
b0 0#
b0 Q#
b0 C#
1$#
b0 Z"
b0 D#
b0 !$
1'#
b1010 H#
b1010 |
b1010 M#
b0 q"
b0 $"
b0 ^"
b0 r"
0V
1U
b100000000000000 "
b100000000000000 L
0G#
04#
15#
0&#
b0 1#
b0 Y"
b0 B#
b0 ~#
b0 3#
b0 E#
b0 p"
b0 s"
b0 t"
b0 u"
b0 v"
b0 _"
b0 `"
b10100 d"
b10100 e"
b100 G
0]#
1f#
1^#
b100000000000000 j
b100000000000000 *
b100000000000000 k
b100000000000000 b
b100000000000000 &
b100000000000000 c
b0 &"
b0 w"
b100 %
b100 [
b10000 ]"
b11 '"
1h#
b11011110101011110000000000000000 i#
b11011110101011110000000000000000 ~
b11011110101011110000000000000000 n"
b11011110101011110000000000000000 j#
b11011110101011110000000000000000 \
b11011110101011110000000000000000 -"
b1 S"
b1 9#
b1 u#
bx %$
bx S
b0 K
b0 $
b0 Z
b0 %"
b0 i"
b10000 f"
b10000 I"
b10000 a"
b10000 g"
b10000 ^
b10000 G"
b1100 h"
b10000 c"
b1100 H"
b1100 b"
b1100 2#
b111100000010001101111010101111 j"
b111100000010001101111010101111 ("
b11011110101011110000000000000000 L#
b11011110101011110000000000000000 b#
b11011110101011110000000000000000 x
b11011110101011110000000000000000 a#
b1100 N#
b1100 {
b1100 c#
b1000 Y#
b1000 O"
b1000 7#
b1000 p#
b1 k#
b1 !"
b10001 q#
b10001 Q"
b10001 8#
b10001 w#
10
1H
#60000
00
0H
b1111100100 1
#65000
1V
0U
b0 "
b0 L
b0 ,
b0 m
b0 +
b0 Q
b0 -
b0 n
0^#
b0 j
b0 *
b0 k
b0 b
b0 &
b0 c
b11000 d"
b11000 e"
b101 G
b11011110101011110000000000000000 S"
b11011110101011110000000000000000 9#
b11011110101011110000000000000000 u#
b0 l
b0 ?"
b0 #$
0f#
0h#
b0 i#
b0 ~
b0 n"
b0 j#
b0 \
b0 -"
b10100 ]"
b100 '"
b101 %
b101 [
bx S
bx %$
b10001 x#
b10001 R"
b10001 z#
b1 v#
b1 T"
b1 {#
b1000 q#
b1000 Q"
b1000 8#
b1000 w#
b11011110101011110000000000000000 k#
b11011110101011110000000000000000 !"
b0 Y#
b0 O"
b0 7#
b0 p#
b0 R#
b0 @"
b1010 N#
b1010 {
b1010 c#
b0 L#
b0 b#
1z
b0 x
b0 a#
b0 j"
b0 ("
b10000 h"
b10100 c"
b10000 H"
b10000 b"
b10000 2#
b10100 f"
b10100 I"
b10100 a"
b10100 g"
b10100 ^
b10100 G"
10
1H
#70000
00
0H
b1111100011 1
#75000
0-#
0.#
14#
b1011111011101111 y
b1011111011101111 m"
b1011111011101111 K#
1@#
b11011110101011110000000000000000 w
b11011110101011110000000000000000 l"
b11011110101011110000000000000000 I#
b1011111011101111 q"
b1011111011101111 $"
b1011111011101111 ^"
b1011111011101111 r"
b11011110101011110000000000000000 ;#
b11011110101011110000000000000000 =#
1>#
b11011110101011110000000000000000 )"
b11011110101011110000000000000000 /#
b11011110101011110000000000000000 V"
b11011110101011110000000000000000 <#
b11011110101011110000000000000000 }#
b11011110101011110000000000000000 A"
b11011110101011110000000000000000 0#
b11011110101011110000000000000000 Q#
b11011110101011110000000000000000 C#
1$#
b11011110101011110000000000000000 Z"
b11011110101011110000000000000000 D#
b11011110101011110000000000000000 !$
b1000 P"
b1000 6#
b1000 X#
b0 F#
0'#
b11 H#
b11 |
b11 M#
1G#
05#
1x"
b1101 1#
0o"
b1000 U"
b1000 :#
b1000 |#
b1000 Y"
b1000 B#
b1000 ~#
b10111 3#
b11011 E#
b101111 p"
b11111111111111111011111011101111 s"
b10111110111011110000000000000000 t"
b1011111011101111 u"
b1011111011101111 v"
b1000010001011111011101111 _"
b100001000101111101110111100 `"
b11100 d"
b11100 e"
b110 G
b110101000010001011111011101111 &"
b110101000010001011111011101111 w"
b110 %
b110 [
b101111101111010100 ]"
b101 '"
b0 S"
b0 9#
b0 u#
bx %$
bx S
b110101000010001011111011101111 K
b110101000010001011111011101111 $
b110101000010001011111011101111 Z
b110101000010001011111011101111 %"
b110101000010001011111011101111 i"
b11000 f"
b11000 I"
b11000 a"
b11000 g"
b11000 ^
b11000 G"
b10100 h"
b11000 c"
b10100 H"
b10100 b"
b10100 2#
b0 k#
b0 !"
b0 q#
b0 Q"
b0 8#
b0 w#
b11011110101011110000000000000000 v#
b11011110101011110000000000000000 T"
b11011110101011110000000000000000 {#
b1000 x#
b1000 R"
b1000 z#
10
1H
#80000
00
0H
b1111100010 1
#85000
b110001010000010000000000000000 y
b110001010000010000000000000000 m"
b110001010000010000000000000000 K#
b0 w
b0 l"
b0 I#
0@#
b110001010000010000000000000000 q"
b110001010000010000000000000000 $"
b110001010000010000000000000000 ^"
b110001010000010000000000000000 r"
b1001 P"
b1001 6#
b1001 X#
b1100 H#
b1100 |
b1100 M#
b0 ;#
b0 =#
b0 )"
b0 /#
0V
1U
b110111110111011 "
b110111110111011 L
04#
1&#
05#
0x"
b1111 1#
b0 U"
b0 :#
b0 |#
b1001 Y"
b1001 B#
b1001 ~#
b110 3#
b101 E#
b1 p"
b11000101000001 s"
b110001010000010000000000000000 t"
b11000101000001 u"
b11000101000001 v"
b10010011000101000001 _"
b1001001100010100000100 `"
b0 V"
b0 <#
b0 }#
bx A"
bx 0#
bx Q#
bx C#
x$#
bx Z"
bx D#
bx !$
b11011110101011110000000000000000 +
b11011110101011110000000000000000 Q
b1101111010101111 ,
b1101111010101111 m
0]#
1^#
b111110111011 "$
b110111110111011 j
b110111110111011 *
b110111110111011 k
b110111110111011 b
b110111110111011 &
b110111110111011 c
b100000 d"
b100000 e"
b111 G
b111100000010010011000101000001 &"
b111100000010010011000101000001 w"
b11011110101011110000000000000000 l
b11011110101011110000000000000000 ?"
b11011110101011110000000000000000 #$
0e#
1g#
b11011110101011111011111011101111 i#
b11011110101011111011111011101111 ~
b11011110101011111011111011101111 n"
b11011110101011111011111011101111 j#
b11011110101011111011111011101111 \
b11011110101011111011111011101111 -"
b11000101000001000000000000011100 ]"
b110 '"
b111 %
b111 [
b111100000010010011000101000001 K
b111100000010010011000101000001 $
b111100000010010011000101000001 Z
b111100000010010011000101000001 %"
b111100000010010011000101000001 i"
bx S
bx %$
b0 x#
b0 R"
b0 z#
b0 v#
b0 T"
b0 {#
b1000 Y#
b1000 O"
b1000 7#
b1000 p#
b11011110101011110000000000000000 R#
b11011110101011110000000000000000 @"
b11 N#
b11 {
b11 c#
b1011111011101111 L#
b1011111011101111 b#
0z
b1011111011101111 x
b1011111011101111 a#
b11011110101011110000000000000000 J#
b11011110101011110000000000000000 `#
b11011110101011110000000000000000 v
b11011110101011110000000000000000 _#
b110101000010001011111011101111 j"
b110101000010001011111011101111 ("
b11000 h"
b11100 c"
b11000 H"
b11000 b"
b11000 2#
b11100 f"
b11100 I"
b11100 a"
b11100 g"
b11100 ^
b11100 G"
10
1H
#90000
00
0H
b1111100001 1
#95000
1-#
1.#
b0 y
b0 m"
b0 K#
b0 P"
b0 6#
b0 X#
b0 A"
b0 0#
b0 Q#
b0 C#
1$#
b0 Z"
b0 D#
b0 !$
1'#
b1010 H#
b1010 |
b1010 M#
b0 q"
b0 $"
b0 ^"
b0 r"
1V
0U
b100000000000000 "
b100000000000000 L
0G#
04#
15#
0&#
b0 1#
b0 Y"
b0 B#
b0 ~#
b0 3#
b0 E#
b0 p"
b0 s"
b0 t"
b0 u"
b0 v"
b0 _"
b0 `"
b100100 d"
b100100 e"
b1000 G
0^#
b0 "$
b100000000000000 j
b100000000000000 *
b100000000000000 k
b100000000000000 b
b100000000000000 &
b100000000000000 c
bx ,
bx m
bx +
bx Q
bx -
bx n
b0 &"
b0 w"
b1000 %
b1000 [
b100000 ]"
b111 '"
0g#
b110001010000010000000000000000 i#
b110001010000010000000000000000 ~
b110001010000010000000000000000 n"
b110001010000010000000000000000 j#
b110001010000010000000000000000 \
b110001010000010000000000000000 -"
bx l
bx ?"
bx #$
b11011110101011111011111011101111 S"
b11011110101011111011111011101111 9#
b11011110101011111011111011101111 u#
bx %$
bx S
b0 K
b0 $
b0 Z
b0 %"
b0 i"
b100000 f"
b100000 I"
b100000 a"
b100000 g"
b100000 ^
b100000 G"
b11100 h"
b100000 c"
b11100 H"
b11100 b"
b11100 2#
b111100000010010011000101000001 j"
b111100000010010011000101000001 ("
b0 J#
b0 `#
b0 v
b0 _#
b110001010000010000000000000000 L#
b110001010000010000000000000000 b#
b110001010000010000000000000000 x
b110001010000010000000000000000 a#
b1100 N#
b1100 {
b1100 c#
bx R#
bx @"
b1001 Y#
b1001 O"
b1001 7#
b1001 p#
b11011110101011111011111011101111 k#
b11011110101011111011111011101111 !"
b1000 q#
b1000 Q"
b1000 8#
b1000 w#
10
1H
#100000
00
0H
b1111100000 1
#105000
b0 "
b0 L
b0 ,
b0 m
b0 +
b0 Q
b0 -
b0 n
b0 j
b0 *
b0 k
b0 b
b0 &
b0 c
b101000 d"
b101000 e"
b1001 G
b110001010000010000000000000000 S"
b110001010000010000000000000000 9#
b110001010000010000000000000000 u#
b0 l
b0 ?"
b0 #$
b0 i#
b0 ~
b0 n"
b0 j#
b0 \
b0 -"
b100100 ]"
b1000 '"
b1001 %
b1001 [
bx S
bx %$
b1000 x#
b1000 R"
b1000 z#
b11011110101011111011111011101111 v#
b11011110101011111011111011101111 T"
b11011110101011111011111011101111 {#
b1001 q#
b1001 Q"
b1001 8#
b1001 w#
b110001010000010000000000000000 k#
b110001010000010000000000000000 !"
b0 Y#
b0 O"
b0 7#
b0 p#
b0 R#
b0 @"
b1010 N#
b1010 {
b1010 c#
b0 L#
b0 b#
1z
b0 x
b0 a#
b0 j"
b0 ("
b100000 h"
b100100 c"
b100000 H"
b100000 b"
b100000 2#
b100100 f"
b100100 I"
b100100 a"
b100100 g"
b100100 ^
b100100 G"
10
1H
#110000
00
0H
b1111011111 1
#115000
0-#
0.#
14#
b101100100100110 y
b101100100100110 m"
b101100100100110 K#
0@#
b110001010000010000000000000000 w
b110001010000010000000000000000 l"
b110001010000010000000000000000 I#
b101100100100110 q"
b101100100100110 $"
b101100100100110 ^"
b101100100100110 r"
b110001010000010000000000000000 ;#
b110001010000010000000000000000 =#
1>#
b110001010000010000000000000000 )"
b110001010000010000000000000000 /#
b110001010000010000000000000000 V"
b110001010000010000000000000000 <#
b110001010000010000000000000000 }#
b110001010000010000000000000000 A"
b110001010000010000000000000000 0#
b110001010000010000000000000000 Q#
b110001010000010000000000000000 C#
1$#
b110001010000010000000000000000 Z"
b110001010000010000000000000000 D#
b110001010000010000000000000000 !$
b1001 P"
b1001 6#
b1001 X#
b0 F#
0'#
b11 H#
b11 |
b11 M#
1G#
05#
1x"
b1101 1#
0o"
b1001 U"
b1001 :#
b1001 |#
b1001 Y"
b1001 B#
b1001 ~#
b1011 3#
b100 E#
b100110 p"
b101100100100110 s"
b1011001001001100000000000000000 t"
b101100100100110 u"
b101100100100110 v"
b1001010010101100100100110 _"
b100101001010110010010011000 `"
b101100 d"
b101100 e"
b1010 G
b110101001010010101100100100110 &"
b110101001010010101100100100110 w"
b1010 %
b1010 [
b10110010011000000 ]"
b1001 '"
b0 S"
b0 9#
b0 u#
bx %$
bx S
b110101001010010101100100100110 K
b110101001010010101100100100110 $
b110101001010010101100100100110 Z
b110101001010010101100100100110 %"
b110101001010010101100100100110 i"
b101000 f"
b101000 I"
b101000 a"
b101000 g"
b101000 ^
b101000 G"
b100100 h"
b101000 c"
b100100 H"
b100100 b"
b100100 2#
b0 k#
b0 !"
b0 q#
b0 Q"
b0 8#
b0 w#
b110001010000010000000000000000 v#
b110001010000010000000000000000 T"
b110001010000010000000000000000 {#
b1001 x#
b1001 R"
b1001 z#
10
1H
#120000
00
0H
b1111011110 1
#125000
b11101111111011100000000000000000 y
b11101111111011100000000000000000 m"
b11101111111011100000000000000000 K#
b0 w
b0 l"
b0 I#
b11101111111011100000000000000000 q"
b11101111111011100000000000000000 $"
b11101111111011100000000000000000 ^"
b11101111111011100000000000000000 r"
b1010 P"
b1010 6#
b1010 X#
b1100 H#
b1100 |
b1100 M#
b0 ;#
b0 =#
b0 )"
b0 /#
b101011001001001 "
b101011001001001 L
04#
1&#
05#
0x"
b1111 1#
b0 U"
b0 :#
b0 |#
b1010 Y"
b1010 B#
b1010 ~#
b11101 3#
b11111 E#
b101110 p"
b11111111111111111110111111101110 s"
b11101111111011100000000000000000 t"
b1110111111101110 u"
b1110111111101110 v"
b10101110111111101110 _"
b1010111011111110111000 `"
b0 V"
b0 <#
b0 }#
bx A"
bx 0#
bx Q#
bx C#
x$#
bx Z"
bx D#
bx !$
b110001010000010000000000000000 +
b110001010000010000000000000000 Q
b11000101000001 ,
b11000101000001 m
b11001001001 "$
b101011001001001 j
b101011001001001 *
b101011001001001 k
b101011001001001 b
b101011001001001 &
b101011001001001 c
b110000 d"
b110000 e"
b1011 G
b111100000010101110111111101110 &"
b111100000010101110111111101110 w"
b110001010000010000000000000000 l
b110001010000010000000000000000 ?"
b110001010000010000000000000000 #$
b110001010000010101100100100110 i#
b110001010000010101100100100110 ~
b110001010000010101100100100110 n"
b110001010000010101100100100110 j#
b110001010000010101100100100110 \
b110001010000010101100100100110 -"
b10111111101110000000000000101100 ]"
b1010 '"
b1011 %
b1011 [
b111100000010101110111111101110 K
b111100000010101110111111101110 $
b111100000010101110111111101110 Z
b111100000010101110111111101110 %"
b111100000010101110111111101110 i"
bx S
bx %$
b0 x#
b0 R"
b0 z#
b0 v#
b0 T"
b0 {#
b1001 Y#
b1001 O"
b1001 7#
b1001 p#
b110001010000010000000000000000 R#
b110001010000010000000000000000 @"
b11 N#
b11 {
b11 c#
b101100100100110 L#
b101100100100110 b#
0z
b101100100100110 x
b101100100100110 a#
b110001010000010000000000000000 J#
b110001010000010000000000000000 `#
b110001010000010000000000000000 v
b110001010000010000000000000000 _#
b110101001010010101100100100110 j"
b110101001010010101100100100110 ("
b101000 h"
b101100 c"
b101000 H"
b101000 b"
b101000 2#
b101100 f"
b101100 I"
b101100 a"
b101100 g"
b101100 ^
b101100 G"
10
1H
#130000
00
0H
b1111011101 1
#135000
1-#
1.#
b0 y
b0 m"
b0 K#
b0 P"
b0 6#
b0 X#
b0 A"
b0 0#
b0 Q#
b0 C#
1$#
b0 Z"
b0 D#
b0 !$
1'#
b1010 H#
b1010 |
b1010 M#
b0 q"
b0 $"
b0 ^"
b0 r"
0V
1U
b0 "
b0 L
0G#
04#
15#
0&#
b0 1#
b0 Y"
b0 B#
b0 ~#
b0 3#
b0 E#
b0 p"
b0 s"
b0 t"
b0 u"
b0 v"
b0 _"
b0 `"
b110100 d"
b110100 e"
b1100 G
0]#
1f#
1^#
b0 "$
b0 j
b0 *
b0 k
b0 b
b0 &
b0 c
bx ,
bx m
bx +
bx Q
bx -
bx n
b0 &"
b0 w"
b1100 %
b1100 [
b110000 ]"
b1011 '"
1h#
b11101111111011100000000000000000 i#
b11101111111011100000000000000000 ~
b11101111111011100000000000000000 n"
b11101111111011100000000000000000 j#
b11101111111011100000000000000000 \
b11101111111011100000000000000000 -"
bx l
bx ?"
bx #$
b110001010000010101100100100110 S"
b110001010000010101100100100110 9#
b110001010000010101100100100110 u#
bx %$
bx S
b0 K
b0 $
b0 Z
b0 %"
b0 i"
b110000 f"
b110000 I"
b110000 a"
b110000 g"
b110000 ^
b110000 G"
b101100 h"
b110000 c"
b101100 H"
b101100 b"
b101100 2#
b111100000010101110111111101110 j"
b111100000010101110111111101110 ("
b0 J#
b0 `#
b0 v
b0 _#
b11101111111011100000000000000000 L#
b11101111111011100000000000000000 b#
b11101111111011100000000000000000 x
b11101111111011100000000000000000 a#
b1100 N#
b1100 {
b1100 c#
bx R#
bx @"
b1010 Y#
b1010 O"
b1010 7#
b1010 p#
b110001010000010101100100100110 k#
b110001010000010101100100100110 !"
b1001 q#
b1001 Q"
b1001 8#
b1001 w#
10
1H
#140000
00
0H
b1111011100 1
#145000
1V
0U
b0 ,
b0 m
b0 +
b0 Q
b0 -
b0 n
0^#
b111000 d"
b111000 e"
b1101 G
b11101111111011100000000000000000 S"
b11101111111011100000000000000000 9#
b11101111111011100000000000000000 u#
b0 l
b0 ?"
b0 #$
0f#
0h#
b0 i#
b0 ~
b0 n"
b0 j#
b0 \
b0 -"
b110100 ]"
b1100 '"
b1101 %
b1101 [
bx S
bx %$
b1001 x#
b1001 R"
b1001 z#
b110001010000010101100100100110 v#
b110001010000010101100100100110 T"
b110001010000010101100100100110 {#
b1010 q#
b1010 Q"
b1010 8#
b1010 w#
b11101111111011100000000000000000 k#
b11101111111011100000000000000000 !"
b0 Y#
b0 O"
b0 7#
b0 p#
b0 R#
b0 @"
b1010 N#
b1010 {
b1010 c#
b0 L#
b0 b#
1z
b0 x
b0 a#
b0 j"
b0 ("
b110000 h"
b110100 c"
b110000 H"
b110000 b"
b110000 2#
b110100 f"
b110100 I"
b110100 a"
b110100 g"
b110100 ^
b110100 G"
10
1H
#150000
00
0H
b1111011011 1
#155000
0-#
0.#
14#
b1110011111001000 y
b1110011111001000 m"
b1110011111001000 K#
1@#
b11101111111011100000000000000000 w
b11101111111011100000000000000000 l"
b11101111111011100000000000000000 I#
b1110011111001000 q"
b1110011111001000 $"
b1110011111001000 ^"
b1110011111001000 r"
b11101111111011100000000000000000 ;#
b11101111111011100000000000000000 =#
1>#
b11101111111011100000000000000000 )"
b11101111111011100000000000000000 /#
b11101111111011100000000000000000 V"
b11101111111011100000000000000000 <#
b11101111111011100000000000000000 }#
b11101111111011100000000000000000 A"
b11101111111011100000000000000000 0#
b11101111111011100000000000000000 Q#
b11101111111011100000000000000000 C#
1$#
b11101111111011100000000000000000 Z"
b11101111111011100000000000000000 D#
b11101111111011100000000000000000 !$
b1010 P"
b1010 6#
b1010 X#
b0 F#
0'#
b11 H#
b11 |
b11 M#
1G#
05#
1x"
b1101 1#
0o"
b1010 U"
b1010 :#
b1010 |#
b1010 Y"
b1010 B#
b1010 ~#
b11100 3#
b11111 E#
b1000 p"
b11111111111111111110011111001000 s"
b11100111110010000000000000000000 t"
b1110011111001000 u"
b1110011111001000 v"
b1010010101110011111001000 _"
b101001010111001111100100000 `"
b111100 d"
b111100 e"
b1110 G
b110101010010101110011111001000 &"
b110101010010101110011111001000 w"
b1110 %
b1110 [
b111001111101011000 ]"
b1101 '"
b0 S"
b0 9#
b0 u#
bx %$
bx S
b110101010010101110011111001000 K
b110101010010101110011111001000 $
b110101010010101110011111001000 Z
b110101010010101110011111001000 %"
b110101010010101110011111001000 i"
b111000 f"
b111000 I"
b111000 a"
b111000 g"
b111000 ^
b111000 G"
b110100 h"
b111000 c"
b110100 H"
b110100 b"
b110100 2#
b0 k#
b0 !"
b0 q#
b0 Q"
b0 8#
b0 w#
b11101111111011100000000000000000 v#
b11101111111011100000000000000000 T"
b11101111111011100000000000000000 {#
b1010 x#
b1010 R"
b1010 z#
10
1H
#160000
00
0H
b1111011010 1
#165000
1-#
1.#
04#
b0 q"
b0 $"
b0 ^"
b0 r"
b0 w
b0 l"
b0 I#
0@#
b0 y
b0 m"
b0 K#
b0 P"
b0 6#
b0 X#
1'#
b1010 H#
b1010 |
b1010 M#
b0 ;#
b0 =#
b0 )"
b0 /#
0V
1U
b11100111110010 "
b11100111110010 L
0G#
15#
0x"
b0 1#
b0 U"
b0 :#
b0 |#
b0 Y"
b0 B#
b0 ~#
b0 3#
b0 E#
b0 p"
b0 s"
b0 t"
b0 u"
b0 v"
b0 _"
b0 `"
b0 V"
b0 <#
b0 }#
b0 A"
b0 0#
b0 Q#
b0 C#
1$#
b0 Z"
b0 D#
b0 !$
b11101111111011100000000000000000 +
b11101111111011100000000000000000 Q
b1110111111101110 ,
b1110111111101110 m
0]#
1^#
b100111110010 "$
b11100111110010 j
b11100111110010 *
b11100111110010 k
b11100111110010 b
b11100111110010 &
b11100111110010 c
b1000000 d"
b1000000 e"
b1111 G
b0 &"
b0 w"
b11101111111011100000000000000000 l
b11101111111011100000000000000000 ?"
b11101111111011100000000000000000 #$
0e#
1g#
b11101111111011101110011111001000 i#
b11101111111011101110011111001000 ~
b11101111111011101110011111001000 n"
b11101111111011101110011111001000 j#
b11101111111011101110011111001000 \
b11101111111011101110011111001000 -"
b111100 ]"
b1110 '"
b1111 %
b1111 [
b0 K
b0 $
b0 Z
b0 %"
b0 i"
bx S
bx %$
b0 x#
b0 R"
b0 z#
b0 v#
b0 T"
b0 {#
b1010 Y#
b1010 O"
b1010 7#
b1010 p#
b11101111111011100000000000000000 R#
b11101111111011100000000000000000 @"
b11 N#
b11 {
b11 c#
b1110011111001000 L#
b1110011111001000 b#
0z
b1110011111001000 x
b1110011111001000 a#
b11101111111011100000000000000000 J#
b11101111111011100000000000000000 `#
b11101111111011100000000000000000 v
b11101111111011100000000000000000 _#
b110101010010101110011111001000 j"
b110101010010101110011111001000 ("
b111000 h"
b111100 c"
b111000 H"
b111000 b"
b111000 2#
b111100 f"
b111100 I"
b111100 a"
b111100 g"
b111100 ^
b111100 G"
10
1H
#170000
00
0H
b1111011001 1
#175000
1V
0U
b0 "
b0 L
b1000100 d"
b1000100 e"
b10000 G
0^#
b0 "$
b0 j
b0 *
b0 k
b0 b
b0 &
b0 c
b0 +
b0 Q
b0 ,
b0 m
b10000 %
b10000 [
b1000000 ]"
b1111 '"
0g#
b0 i#
b0 ~
b0 n"
b0 j#
b0 \
b0 -"
b0 l
b0 ?"
b0 #$
b11101111111011101110011111001000 S"
b11101111111011101110011111001000 9#
b11101111111011101110011111001000 u#
bx %$
bx S
b1000000 f"
b1000000 I"
b1000000 a"
b1000000 g"
b1000000 ^
b1000000 G"
b111100 h"
b1000000 c"
b111100 H"
b111100 b"
b111100 2#
b0 j"
b0 ("
b0 J#
b0 `#
b0 v
b0 _#
b0 L#
b0 b#
1z
b0 x
b0 a#
b1010 N#
b1010 {
b1010 c#
b0 R#
b0 @"
b0 Y#
b0 O"
b0 7#
b0 p#
b11101111111011101110011111001000 k#
b11101111111011101110011111001000 !"
b1010 q#
b1010 Q"
b1010 8#
b1010 w#
10
1H
#180000
00
0H
b1111011000 1
#185000
0-#
b11011110101011111011111011101111 w
b11011110101011111011111011101111 l"
b11011110101011111011111011101111 I#
b1111 F#
0.#
14#
1@#
b110001010000010101100100100110 y
b110001010000010101100100100110 m"
b110001010000010101100100100110 K#
b101100000100110 q"
b101100000100110 $"
b101100000100110 ^"
b101100000100110 r"
b11011110101011111011111011101111 ;#
b11011110101011111011111011101111 =#
b11011110101011111011111011101111 )"
b11011110101011111011111011101111 /#
b11011110101011111011111011101111 V"
b11011110101011111011111011101111 <#
b11011110101011111011111011101111 }#
b110001010000010101100100100110 A"
b110001010000010101100100100110 0#
b110001010000010101100100100110 Q#
b110001010000010101100100100110 C#
0$#
b110001010000010101100100100110 Z"
b110001010000010101100100100110 D#
b110001010000010101100100100110 !$
b1011 P"
b1011 6#
b1011 X#
0'#
b10 H#
b10 |
b10 M#
0o"
b1000 U"
b1000 :#
b1000 |#
b1001 Y"
b1001 B#
b1001 ~#
b1011 3#
b100110 p"
b101100000100110 s"
b1011000001001100000000000000000 t"
b101100000100110 u"
b101100000100110 v"
b1000010010101100000100110 _"
b100001001010110000010011000 `"
b1001000 d"
b1001000 e"
b10001 G
b1000010010101100000100110 &"
b1000010010101100000100110 w"
b0 S"
b0 9#
b0 u#
b10110000011011100 ]"
b10000 '"
b10001 %
b10001 [
b1000010010101100000100110 K
b1000010010101100000100110 $
b1000010010101100000100110 Z
b1000010010101100000100110 %"
b1000010010101100000100110 i"
bx S
bx %$
b1010 x#
b1010 R"
b1010 z#
b11101111111011101110011111001000 v#
b11101111111011101110011111001000 T"
b11101111111011101110011111001000 {#
b0 q#
b0 Q"
b0 8#
b0 w#
b0 k#
b0 !"
b1000000 h"
b1000100 c"
b1000000 H"
b1000000 b"
b1000000 2#
b1000100 f"
b1000100 I"
b1000100 a"
b1000100 g"
b1000100 ^
b1000100 G"
10
1H
#190000
00
0H
b1111010111 1
#195000
1-#
b0 F#
b0 w
b0 l"
b0 I#
0@#
1.#
04#
1$#
b0 ;#
b0 =#
b0 )"
b0 /#
b0 y
b0 m"
b0 K#
b0 q"
b0 $"
b0 ^"
b0 r"
b0 V"
b0 <#
b0 }#
b0 A"
b0 0#
b0 Q#
b0 C#
b0 Z"
b0 D#
b0 !$
b0 P"
b0 6#
b0 X#
1'#
b1010 H#
b1010 |
b1010 M#
0V
1U
b11100111110010 "
b11100111110010 L
b0 U"
b0 :#
b0 |#
b0 Y"
b0 B#
b0 ~#
b0 3#
b0 p"
b0 s"
b0 t"
b0 u"
b0 v"
b0 _"
b0 `"
b1001100 d"
b1001100 e"
b10010 G
0]#
1^#
b100111110010 "$
b11100111110010 j
b11100111110010 *
b11100111110010 k
b11100111110010 b
b11100111110010 &
b11100111110010 c
b11000101000001 ,
b11000101000001 m
b110001010000010101100100100110 +
b110001010000010101100100100110 Q
b101100100100110 -
b101100100100110 n
b0 &"
b0 w"
b10010 %
b10010 [
b1001000 ]"
b10001 '"
0e#
1g#
b11101111111011101110011111001001 i#
b11101111111011101110011111001001 ~
b11101111111011101110011111001001 n"
b11101111111011101110011111001001 j#
b11101111111011101110011111001001 \
b11101111111011101110011111001001 -"
b110001010000010101100100100110 l
b110001010000010101100100100110 ?"
b110001010000010101100100100110 #$
bx %$
bx S
b0 K
b0 $
b0 Z
b0 %"
b0 i"
b1001000 f"
b1001000 I"
b1001000 a"
b1001000 g"
b1001000 ^
b1001000 G"
b1000100 h"
b1001000 c"
b1000100 H"
b1000100 b"
b1000100 2#
b1000010010101100000100110 j"
b1000010010101100000100110 ("
b11011110101011111011111011101111 J#
b11011110101011111011111011101111 `#
b11011110101011111011111011101111 v
b11011110101011111011111011101111 _#
b110001010000010101100100100110 L#
b110001010000010101100100100110 b#
0z
b110001010000010101100100100110 x
b110001010000010101100100100110 a#
b10 N#
b10 {
b10 c#
b110001010000010101100100100110 R#
b110001010000010101100100100110 @"
b1011 Y#
b1011 O"
b1011 7#
b1011 p#
b0 v#
b0 T"
b0 {#
b0 x#
b0 R"
b0 z#
10
1H
#200000
00
0H
b1111010110 1
#205000
1V
0U
b0 "
b0 L
b0 ,
b0 m
b0 +
b0 Q
b0 -
b0 n
0^#
b0 "$
b0 j
b0 *
b0 k
b0 b
b0 &
b0 c
b1010000 d"
b1010000 e"
b10011 G
b11101111111011101110011111001001 S"
b11101111111011101110011111001001 9#
b11101111111011101110011111001001 u#
b0 l
b0 ?"
b0 #$
0g#
b0 i#
b0 ~
b0 n"
b0 j#
b0 \
b0 -"
b1001100 ]"
b10010 '"
b10011 %
b10011 [
bx S
bx %$
b1011 q#
b1011 Q"
b1011 8#
b1011 w#
b11101111111011101110011111001001 k#
b11101111111011101110011111001001 !"
b0 Y#
b0 O"
b0 7#
b0 p#
b0 R#
b0 @"
b1010 N#
b1010 {
b1010 c#
b0 L#
b0 b#
1z
b0 x
b0 a#
b0 J#
b0 `#
b0 v
b0 _#
b0 j"
b0 ("
b1001000 h"
b1001100 c"
b1001000 H"
b1001000 b"
b1001000 2#
b1001100 f"
b1001100 I"
b1001100 a"
b1001100 g"
b1001100 ^
b1001100 G"
10
1H
#210000
00
0H
b1111010101 1
#215000
0-#
b11101111111011101110011111001000 w
b11101111111011101110011111001000 l"
b11101111111011101110011111001000 I#
b1000 F#
0.#
14#
1@#
b11101111111011101110011111001001 y
b11101111111011101110011111001001 m"
b11101111111011101110011111001001 K#
b110000000100110 q"
b110000000100110 $"
b110000000100110 ^"
b110000000100110 r"
b11101111111011101110011111001000 ;#
b11101111111011101110011111001000 =#
b11101111111011101110011111001000 )"
b11101111111011101110011111001000 /#
b11101111111011101110011111001000 V"
b11101111111011101110011111001000 <#
b11101111111011101110011111001000 }#
b11101111111011101110011111001001 A"
b11101111111011101110011111001001 0#
b11101111111011101110011111001001 Q#
b11101111111011101110011111001001 C#
0$#
b11101111111011101110011111001001 Z"
b11101111111011101110011111001001 D#
b11101111111011101110011111001001 !$
b1100 P"
b1100 6#
b1100 X#
0'#
b10 H#
b10 |
b10 M#
0o"
b1010 U"
b1010 :#
b1010 |#
b1011 Y"
b1011 B#
b1011 ~#
b1100 3#
b100110 p"
b110000000100110 s"
b1100000001001100000000000000000 t"
b110000000100110 u"
b110000000100110 v"
b1010010110110000000100110 _"
b101001011011000000010011000 `"
b1010100 d"
b1010100 e"
b10100 G
b1010010110110000000100110 &"
b1010010110110000000100110 w"
b10100 %
b10100 [
b11000000011101000 ]"
b10011 '"
b0 S"
b0 9#
b0 u#
bx %$
bx S
b1010010110110000000100110 K
b1010010110110000000100110 $
b1010010110110000000100110 Z
b1010010110110000000100110 %"
b1010010110110000000100110 i"
b1010000 f"
b1010000 I"
b1010000 a"
b1010000 g"
b1010000 ^
b1010000 G"
b1001100 h"
b1010000 c"
b1001100 H"
b1001100 b"
b1001100 2#
b0 k#
b0 !"
b0 q#
b0 Q"
b0 8#
b0 w#
b11101111111011101110011111001001 v#
b11101111111011101110011111001001 T"
b11101111111011101110011111001001 {#
b1011 x#
b1011 R"
b1011 z#
10
1H
#220000
00
0H
b1111010100 1
#225000
1-#
b0 F#
b0 w
b0 l"
b0 I#
0@#
1.#
04#
1$#
b0 ;#
b0 =#
b0 )"
b0 /#
b0 q"
b0 $"
b0 ^"
b0 r"
b0 V"
b0 <#
b0 }#
b0 P"
b0 6#
b0 X#
1'#
b1010 H#
b1010 |
b1010 M#
b0 y
b0 m"
b0 K#
b0 U"
b0 :#
b0 |#
b0 Y"
b0 B#
b0 ~#
b0 3#
b0 p"
b0 s"
b0 t"
b0 u"
b0 v"
b0 _"
b0 `"
b0 A"
b0 0#
b0 Q#
b0 C#
b0 Z"
b0 D#
b0 !$
b1110111111101110 ,
b1110111111101110 m
b11101111111011101110011111001001 +
b11101111111011101110011111001001 Q
b1110011111001001 -
b1110011111001001 n
b1011000 d"
b1011000 e"
b10101 G
b0 &"
b0 w"
b11101111111011101110011111001001 l
b11101111111011101110011111001001 ?"
b11101111111011101110011111001001 #$
1\#
1h#
0e#
1g#
b1 i#
b1 ~
b1 n"
b1 j#
b1 \
b1 -"
b1010100 ]"
b10100 '"
b10101 %
b10101 [
b0 K
b0 $
b0 Z
b0 %"
b0 i"
bx S
bx %$
b0 x#
b0 R"
b0 z#
b0 v#
b0 T"
b0 {#
b1100 Y#
b1100 O"
b1100 7#
b1100 p#
b11101111111011101110011111001001 R#
b11101111111011101110011111001001 @"
b10 N#
b10 {
b10 c#
b11101111111011101110011111001001 L#
b11101111111011101110011111001001 b#
0z
b11101111111011101110011111001001 x
b11101111111011101110011111001001 a#
b11101111111011101110011111001000 J#
b11101111111011101110011111001000 `#
b11101111111011101110011111001000 v
b11101111111011101110011111001000 _#
b1010010110110000000100110 j"
b1010010110110000000100110 ("
b1010000 h"
b1010100 c"
b1010000 H"
b1010000 b"
b1010000 2#
b1010100 f"
b1010100 I"
b1010100 a"
b1010100 g"
b1010100 ^
b1010100 G"
10
1H
#230000
00
0H
b1111010011 1
#235000
b1011100 d"
b1011100 e"
b10110 G
b0 ,
b0 m
b0 +
b0 Q
b0 -
b0 n
b10110 %
b10110 [
b1011000 ]"
b10101 '"
0g#
0\#
0h#
b0 i#
b0 ~
b0 n"
b0 j#
b0 \
b0 -"
b0 l
b0 ?"
b0 #$
b1 S"
b1 9#
b1 u#
bx %$
bx S
b1011000 f"
b1011000 I"
b1011000 a"
b1011000 g"
b1011000 ^
b1011000 G"
b1010100 h"
b1011000 c"
b1010100 H"
b1010100 b"
b1010100 2#
b0 j"
b0 ("
b0 J#
b0 `#
b0 v
b0 _#
b0 L#
b0 b#
1z
b0 x
b0 a#
b1010 N#
b1010 {
b1010 c#
b0 R#
b0 @"
b0 Y#
b0 O"
b0 7#
b0 p#
b1 k#
b1 !"
b1100 q#
b1100 Q"
b1100 8#
b1100 w#
10
1H
#240000
00
0H
b1111010010 1
#245000
b10000000000000100000000000000000 w
b10000000000000100000000000000000 l"
b10000000000000100000000000000000 I#
0-#
0.#
14#
b100 y
b100 m"
b100 K#
1@#
b100 q"
b100 $"
b100 ^"
b100 r"
b1100 P"
b1100 6#
b1100 X#
b10000000000000100000000000000000 ;#
b10000000000000100000000000000000 =#
b10000000000000100000000000000000 )"
b10000000000000100000000000000000 /#
b10000000000000100000000000000000 V"
b10000000000000100000000000000000 <#
b10000000000000100000000000000000 }#
b1 A"
b1 0#
b1 Q#
b1 C#
0$#
b1 Z"
b1 D#
b1 !$
0'#
b1101 H#
b1101 |
b1101 M#
1G#
0L"
1>"
b101011 1#
0o"
b10000 U"
b10000 :#
b10000 |#
b1100 Y"
b1100 B#
b1100 ~#
b100 p"
b100 s"
b1000000000000000000 t"
b100 u"
b100 v"
b10000011000000000000000100 _"
b1000001100000000000000010000 `"
b1100000 d"
b1100000 e"
b10111 G
b10101110000011000000000000000100 &"
b10101110000011000000000000000100 w"
b0 S"
b0 9#
b0 u#
b1101100 ]"
b10110 '"
b10111 %
b10111 [
b10101110000011000000000000000100 K
b10101110000011000000000000000100 $
b10101110000011000000000000000100 Z
b10101110000011000000000000000100 %"
b10101110000011000000000000000100 i"
bx S
bx %$
b1100 x#
b1100 R"
b1100 z#
b1 v#
b1 T"
b1 {#
b0 q#
b0 Q"
b0 8#
b0 w#
b0 k#
b0 !"
b1011000 h"
b1011100 c"
b1011000 H"
b1011000 b"
b1011000 2#
b1011100 f"
b1011100 I"
b1011100 a"
b1011100 g"
b1011100 ^
b1011100 G"
10
1H
#250000
00
0H
b1111010001 1
#255000
b0 y
b0 m"
b0 K#
b0 q"
b0 $"
b0 ^"
b0 r"
b10001 P"
b10001 6#
b10001 X#
0V
b1 "
b1 L
b10001 Y"
b10001 B#
b10001 ~#
b0 p"
b0 s"
b0 t"
b0 u"
b0 v"
b10000100010000000000000000 _"
b1000010001000000000000000000 `"
b1100100 d"
b1100100 e"
b11000 G
0]#
1^#
b1 "$
b1 j
b1 *
b1 k
b1 b
b1 &
b1 c
b1 +
b1 Q
b1 -
b1 n
b0 $$
b10101110000100010000000000000000 &"
b10101110000100010000000000000000 w"
b11000 %
b11000 [
b1100000 ]"
b10111 '"
0e#
1g#
b10000000000000100000000000000100 i#
b10000000000000100000000000000100 ~
b10000000000000100000000000000100 n"
b10000000000000100000000000000100 j#
1X
b10000000000000100000000000000100 \
b10000000000000100000000000000100 -"
b1 l
b1 ?"
b1 #$
b1111 a
b1111 B"
0K"
bx %$
bx S
b10101110000100010000000000000000 K
b10101110000100010000000000000000 $
b10101110000100010000000000000000 Z
b10101110000100010000000000000000 %"
b10101110000100010000000000000000 i"
b1100000 f"
b1100000 I"
b1100000 a"
b1100000 g"
b1100000 ^
b1100000 G"
b1011100 h"
b1100000 c"
b1011100 H"
b1011100 b"
b1011100 2#
b10101110000011000000000000000100 j"
b10101110000011000000000000000100 ("
b10000000000000100000000000000000 J#
b10000000000000100000000000000000 `#
b10000000000000100000000000000000 v
b10000000000000100000000000000000 _#
b100 L#
b100 b#
0z
b100 x
b100 a#
b1101 N#
1[#
b1101 {
b1101 c#
b1 R#
b1 @"
1S#
1="
b1100 Y#
b1100 O"
b1100 7#
b1100 p#
0Z#
0J"
b0 v#
b0 T"
b0 {#
b0 x#
b0 R"
b0 z#
10
1H
#260000
00
0H
b1111010000 1
#265000
b0 w
b0 l"
b0 I#
0@#
b11000 y
b11000 m"
b11000 K#
1$#
b0 ;#
b0 =#
b0 )"
b0 /#
b11000 q"
b11000 $"
b11000 ^"
b11000 r"
b0 V"
b0 <#
b0 }#
b0 P"
b0 6#
b0 X#
b0 A"
b0 0#
b0 Q#
b0 C#
b0 Z"
b0 D#
b0 !$
b1011 H#
b1011 |
b1011 M#
b0 "
b0 L
1%#
04#
05#
1,"
0L"
0>"
b10 1#
b0 U"
b0 :#
b0 |#
b0 Y"
b0 B#
b0 ~#
b11000 p"
b11000 s"
b110000000000000000000 t"
b11000 u"
b11000 v"
b11000 _"
b1100000 `"
b0 "$
b0 j
b0 *
b0 k
b0 b
b0 &
b0 c
b1100000 d"
b1100000 e"
b11001 G
b1000000000000000000000011000 &"
b1000000000000000000000011000 w"
b10000000000000100000000000000100 S"
b10000000000000100000000000000100 9#
b10000000000000100000000000000100 u#
b10000000000000100000000000000000 i#
b10000000000000100000000000000000 ~
b10000000000000100000000000000000 n"
b10000000000000100000000000000000 j#
0X
1W
b10000000000000100000000000000000 \
b10000000000000100000000000000000 -"
b11000100 ]"
b11000 '"
b11001 %
b11001 [
b1000000000000000000000011000 K
b1000000000000000000000011000 $
b1000000000000000000000011000 Z
b1000000000000000000000011000 %"
b1000000000000000000000011000 i"
bx S
bx %$
b1 u
b1 )
b1 i
0r#
0M"
b1100 q#
b1100 Q"
b1100 8#
b1100 w#
b10000000000000100000000000000100 k#
b10000000000000100000000000000100 !"
b10001 Y#
b10001 O"
b10001 7#
b10001 p#
b0 L#
b0 b#
1z
b0 x
b0 a#
b10101110000100010000000000000000 j"
b10101110000100010000000000000000 ("
b1100000 h"
b1100100 c"
b1100000 H"
b1100000 b"
b1100000 2#
b1100100 f"
b1100100 I"
b1100100 a"
b1100100 g"
b1100100 ^
b1100100 G"
10
1H
#270000
00
0H
b1111001111 1
#275000
1-#
1.#
b0 q"
b0 $"
b0 ^"
b0 r"
b0 y
b0 m"
b0 K#
1'#
b1010 H#
b1010 |
b1010 M#
b1100100 d"
b1100100 e"
1V
1L"
0%#
04#
15#
0,"
0G#
b0 1#
b0 p"
b0 s"
b0 t"
b0 u"
b0 v"
b0 _"
b0 `"
b11000 G
0^#
b0 +
b0 Q
b0 -
b0 n
b0 &"
b0 w"
b11000 %
b11000 [
b1101000 ]"
b11001 '"
0g#
b0 i#
b0 ~
b0 n"
b0 j#
0U
0W
b0 \
b0 -"
b0 l
b0 ?"
b0 #$
b0 a
b0 B"
b10000000000000100000000000000000 S"
b10000000000000100000000000000000 9#
b10000000000000100000000000000000 u#
b1 t
b1 (
b1 h
bx %$
bx S
b0 K
b0 $
b0 Z
b0 %"
b0 i"
b1100000 f"
b1100000 I"
b1100000 a"
b1100000 g"
b1100000 ^
b1100000 G"
b1100100 h"
b1101000 c"
b1100100 H"
b1100100 b"
b1100100 2#
b1000000000000000000000011000 j"
b1000000000000000000000011000 ("
b0 J#
b0 `#
b0 v
b0 _#
b11000 L#
b11000 b#
0z
b11000 x
b11000 a#
b1011 N#
0[#
b1011 {
b1011 c#
b0 R#
b0 @"
0S#
0="
b0 Y#
b0 O"
b0 7#
b0 p#
b10000000000000100000000000000000 k#
b10000000000000100000000000000000 !"
b10001 q#
b10001 Q"
b10001 8#
b10001 w#
b10000000000000100000000000000100 v#
b10000000000000100000000000000100 T"
b10000000000000100000000000000100 {#
b1100 x#
b1100 R"
b1100 z#
0y#
0N"
10
1H
#280000
00
0H
b10000000000000000000000000000011 4
b0xxxxxxxxxxxxxxxxxxxx00 D
b0xxxxxxxxxxxxxxxxxxxx00 Y
