
build/app:     file format elf32-bigmips


Disassembly of section .text:

00000000 <boot>:
       0:	3c108002 	lui	s0,0x8002
       4:	34110001 	li	s1,0x1
       8:	3408ffff 	li	t0,0xffff
	...
      14:	05010007 	bgez	t0,34 <boot+0x34>
      18:	34020000 	li	v0,0x0
	...
      24:	ae020004 	sw	v0,4(s0)
      28:	ae110000 	sw	s1,0(s0)
      2c:	0800000b 	j	2c <boot+0x2c>
      30:	00000000 	nop
      34:	08000007 	j	1c <boot+0x1c>
      38:	34020001 	li	v0,0x1
	...
