
build/app:     file format elf32-bigmips


Disassembly of section .text:

00000000 <boot>:
       0:	3c108002 	lui	s0,0x8002
       4:	34110001 	li	s1,0x1
       8:	3c080000 	lui	t0,0x0
	...
      14:	35083210 	ori	t0,t0,0x3210
      18:	3c09de0f 	lui	t1,0xde0f
	...
      24:	3529beef 	ori	t1,t1,0xbeef
	...
      30:	ad090000 	sw	t1,0(t0)
      34:	91120000 	lbu	s2,0(t0)
      38:	91130001 	lbu	s3,1(t0)
      3c:	91140002 	lbu	s4,2(t0)
      40:	91150003 	lbu	s5,3(t0)
      44:	340a00de 	li	t2,0xde
      48:	340b000f 	li	t3,0xf
      4c:	340c00be 	li	t4,0xbe
      50:	340d00ef 	li	t5,0xef
      54:	01521823 	subu	v1,t2,s2
	...
      60:	2c620001 	sltiu	v0,v1,1
      64:	01731823 	subu	v1,t3,s3
	...
      70:	2c630001 	sltiu	v1,v1,1
	...
      7c:	00431024 	and	v0,v0,v1
      80:	01941823 	subu	v1,t4,s4
	...
      8c:	2c630001 	sltiu	v1,v1,1
	...
      98:	00431024 	and	v0,v0,v1
	...
      a4:	01b51823 	subu	v1,t5,s5
	...
      b0:	2c630001 	sltiu	v1,v1,1
	...
      bc:	00431024 	and	v0,v0,v1
	...
      c8:	ae020004 	sw	v0,4(s0)
      cc:	ae110000 	sw	s1,0(s0)
      d0:	08000034 	j	d0 <boot+0xd0>
      d4:	00000000 	nop
	...
