Instruction Memory: tests/movnMod/build/app.hex
No input data buffer
No output buffer
Running userlogic for maximum of 1000 cycles
VCD info: dumpfile tests/movnMod/streamwave.vcd opened for output.
Userlogic ran for 17 cycles
status register = 1
test register = 1
